-- Merging decision tree log ---
manifest
ADDED from /Users/youappihome/Android Projects/Teams/app/src/main/AndroidManifest.xml:2:1-54:12
INJECTED from /Users/youappihome/Android Projects/Teams/app/src/main/AndroidManifest.xml:2:1-54:12
INJECTED from /Users/youappihome/Android Projects/Teams/app/src/main/AndroidManifest.xml:2:1-54:12
INJECTED from /Users/youappihome/Android Projects/Teams/app/src/main/AndroidManifest.xml:2:1-54:12
MERGED from [com.getbase:floatingactionbutton:1.9.0] /Users/youappihome/.gradle/caches/transforms-1/files-1.1/floatingactionbutton-1.9.0.aar/ad9f00499e420173bf784250192a8b7f/AndroidManifest.xml:2:1-14:12
MERGED from [com.youappi.sdk:youappi-sdk-android:4.0.3.yaga-SNAPSHOT] /Users/youappihome/.gradle/caches/transforms-1/files-1.1/youappi-sdk-android-4.0.3.yaga-SNAPSHOT.aar/f074c2a1f370412b0f682a0ae95c2cab/AndroidManifest.xml:2:1-21:12
MERGED from [com.android.support.constraint:constraint-layout:1.0.2] /Users/youappihome/.gradle/caches/transforms-1/files-1.1/constraint-layout-1.0.2.aar/b9b3c1f410109d119f6f1e2e685f0648/AndroidManifest.xml:2:1-11:12
MERGED from [com.crashlytics.sdk.android:crashlytics:2.9.1] /Users/youappihome/.gradle/caches/transforms-1/files-1.1/crashlytics-2.9.1.aar/af4bc2f059ed59efdf955e30ce821b8f/AndroidManifest.xml:2:1-19:12
MERGED from [com.dc289.sdk:ysdk:0.0.26] /Users/youappihome/.gradle/caches/transforms-1/files-1.1/ysdk-0.0.26.aar/a3db70af2abb02b0076826cee0e018f9/AndroidManifest.xml:2:1-32:12
MERGED from [com.android.support:appcompat-v7:26.1.0] /Users/youappihome/.gradle/caches/transforms-1/files-1.1/appcompat-v7-26.1.0.aar/d07059f01fbe9e2893745538a783099f/AndroidManifest.xml:17:1-31:12
MERGED from [com.android.support:animated-vector-drawable:26.1.0] /Users/youappihome/.gradle/caches/transforms-1/files-1.1/animated-vector-drawable-26.1.0.aar/afa14418563fd24ad9164ac57d02ccc0/AndroidManifest.xml:17:1-28:12
MERGED from [com.android.support:support-vector-drawable:26.1.0] /Users/youappihome/.gradle/caches/transforms-1/files-1.1/support-vector-drawable-26.1.0.aar/46a747e780cae4a2a663ed980b7a1b1d/AndroidManifest.xml:17:1-28:12
MERGED from [com.google.android.gms:play-services-ads:11.8.0] /Users/youappihome/.gradle/caches/transforms-1/files-1.1/play-services-ads-11.8.0.aar/22c01573cf7ba8c1eb57213e85d22501/AndroidManifest.xml:17:1-25:12
MERGED from [com.google.android.gms:play-services-ads-lite:11.8.0] /Users/youappihome/.gradle/caches/transforms-1/files-1.1/play-services-ads-lite-11.8.0.aar/f7d16d4ffa8d9671734069a9c77ad83f/AndroidManifest.xml:17:1-36:12
MERGED from [com.google.android.gms:play-services-gass:11.8.0] /Users/youappihome/.gradle/caches/transforms-1/files-1.1/play-services-gass-11.8.0.aar/2b6de9cabc79e784181ee8c916b25ac2/AndroidManifest.xml:2:1-9:12
MERGED from [com.google.android.gms:play-services-basement:11.8.0] /Users/youappihome/.gradle/caches/transforms-1/files-1.1/play-services-basement-11.8.0.aar/bae7b39b134e0dfdbece0c2bcab7d9b7/AndroidManifest.xml:17:1-28:12
MERGED from [com.android.support:support-v4:26.1.0] /Users/youappihome/.gradle/caches/transforms-1/files-1.1/support-v4-26.1.0.aar/c10d29a8c030eb07bfb8f9a14ec7db26/AndroidManifest.xml:17:1-31:12
MERGED from [com.android.support:support-fragment:26.1.0] /Users/youappihome/.gradle/caches/transforms-1/files-1.1/support-fragment-26.1.0.aar/00b6d48275e6f41710f4f70b67591395/AndroidManifest.xml:17:1-31:12
MERGED from [com.android.support:support-core-ui:26.1.0] /Users/youappihome/.gradle/caches/transforms-1/files-1.1/support-core-ui-26.1.0.aar/24de06e5054a3b96b1bd565f24f95db2/AndroidManifest.xml:17:1-31:12
MERGED from [com.android.support:support-media-compat:26.1.0] /Users/youappihome/.gradle/caches/transforms-1/files-1.1/support-media-compat-26.1.0.aar/16f862d850aec1eef76d9603939c5e96/AndroidManifest.xml:17:1-31:12
MERGED from [com.android.support:support-core-utils:26.1.0] /Users/youappihome/.gradle/caches/transforms-1/files-1.1/support-core-utils-26.1.0.aar/316601fcf19404fb3ca7ee6a1f670d70/AndroidManifest.xml:17:1-31:12
MERGED from [com.android.support:support-compat:26.1.0] /Users/youappihome/.gradle/caches/transforms-1/files-1.1/support-compat-26.1.0.aar/5bce9d1c62379787897f61869d123024/AndroidManifest.xml:17:1-31:12
MERGED from [com.crashlytics.sdk.android:beta:1.2.7] /Users/youappihome/.gradle/caches/transforms-1/files-1.1/beta-1.2.7.aar/26ae93b8e0df0325bee8efc929d60d70/AndroidManifest.xml:2:1-13:12
MERGED from [com.crashlytics.sdk.android:crashlytics-core:2.6.1] /Users/youappihome/.gradle/caches/transforms-1/files-1.1/crashlytics-core-2.6.1.aar/91433c0dedaaabc50f82b46687764e17/AndroidManifest.xml:45:1-56:12
MERGED from [com.crashlytics.sdk.android:answers:1.4.1] /Users/youappihome/.gradle/caches/transforms-1/files-1.1/answers-1.4.1.aar/f1ab77b7e5dfc6547ffcf54126f01b1f/AndroidManifest.xml:2:1-13:12
MERGED from [io.fabric.sdk.android:fabric:1.4.2] /Users/youappihome/.gradle/caches/transforms-1/files-1.1/fabric-1.4.2.aar/10cdeb5e471bded91129210ee5db19b6/AndroidManifest.xml:22:1-33:12
MERGED from [com.google.android.gms:play-services-ads-lite-license:11.8.0] /Users/youappihome/.gradle/caches/transforms-1/files-1.1/play-services-ads-lite-license-11.8.0.aar/f465e3c4a010eb9d32d6ba349b897af3/AndroidManifest.xml:2:1-6:12
MERGED from [com.google.android.gms:play-services-basement-license:11.8.0] /Users/youappihome/.gradle/caches/transforms-1/files-1.1/play-services-basement-license-11.8.0.aar/1152de9efdf5a031fca20eb3d7000d98/AndroidManifest.xml:2:1-6:12
MERGED from [com.google.android.gms:play-services-ads-license:11.8.0] /Users/youappihome/.gradle/caches/transforms-1/files-1.1/play-services-ads-license-11.8.0.aar/67838e7717e684b77daf50bfe0c8ab43/AndroidManifest.xml:2:1-6:12
MERGED from [com.google.android.gms:play-services-gass-license:11.8.0] /Users/youappihome/.gradle/caches/transforms-1/files-1.1/play-services-gass-license-11.8.0.aar/adba3558900b42b651743fc7ce7c35ab/AndroidManifest.xml:2:1-6:12
MERGED from [android.arch.lifecycle:runtime:1.0.0] /Users/youappihome/.gradle/caches/transforms-1/files-1.1/runtime-1.0.0.aar/db657a79654dca931838f960421ac268/AndroidManifest.xml:17:1-30:12
INJECTED from /Users/youappihome/Android Projects/Teams/app/src/main/AndroidManifest.xml:2:1-54:12
INJECTED from /Users/youappihome/Android Projects/Teams/app/src/main/AndroidManifest.xml:2:1-54:12
INJECTED from /Users/youappihome/Android Projects/Teams/app/src/main/AndroidManifest.xml:2:1-54:12
	package
		ADDED from /Users/youappihome/Android Projects/Teams/app/src/main/AndroidManifest.xml:4:5-43
		INJECTED from /Users/youappihome/Android Projects/Teams/app/src/main/AndroidManifest.xml
		INJECTED from /Users/youappihome/Android Projects/Teams/app/src/main/AndroidManifest.xml
	android:versionName
		ADDED from /Users/youappihome/Android Projects/Teams/app/src/main/AndroidManifest.xml:6:5-30
		INJECTED from /Users/youappihome/Android Projects/Teams/app/src/main/AndroidManifest.xml
		INJECTED from /Users/youappihome/Android Projects/Teams/app/src/main/AndroidManifest.xml
	xmlns:tools
		ADDED from /Users/youappihome/Android Projects/Teams/app/src/main/AndroidManifest.xml:3:5-51
	xmlns:android
		ADDED from /Users/youappihome/Android Projects/Teams/app/src/main/AndroidManifest.xml:2:11-69
	android:versionCode
		ADDED from /Users/youappihome/Android Projects/Teams/app/src/main/AndroidManifest.xml:5:5-28
		INJECTED from /Users/youappihome/Android Projects/Teams/app/src/main/AndroidManifest.xml
		INJECTED from /Users/youappihome/Android Projects/Teams/app/src/main/AndroidManifest.xml
uses-sdk
ADDED from /Users/youappihome/Android Projects/Teams/app/src/main/AndroidManifest.xml:8:5-10:41
INJECTED from /Users/youappihome/Android Projects/Teams/app/src/main/AndroidManifest.xml:8:5-10:41
INJECTED from /Users/youappihome/Android Projects/Teams/app/src/main/AndroidManifest.xml:8:5-10:41
MERGED from [com.getbase:floatingactionbutton:1.9.0] /Users/youappihome/.gradle/caches/transforms-1/files-1.1/floatingactionbutton-1.9.0.aar/ad9f00499e420173bf784250192a8b7f/AndroidManifest.xml:8:5-10:41
MERGED from [com.getbase:floatingactionbutton:1.9.0] /Users/youappihome/.gradle/caches/transforms-1/files-1.1/floatingactionbutton-1.9.0.aar/ad9f00499e420173bf784250192a8b7f/AndroidManifest.xml:8:5-10:41
MERGED from [com.youappi.sdk:youappi-sdk-android:4.0.3.yaga-SNAPSHOT] /Users/youappihome/.gradle/caches/transforms-1/files-1.1/youappi-sdk-android-4.0.3.yaga-SNAPSHOT.aar/f074c2a1f370412b0f682a0ae95c2cab/AndroidManifest.xml:7:5-9:41
MERGED from [com.youappi.sdk:youappi-sdk-android:4.0.3.yaga-SNAPSHOT] /Users/youappihome/.gradle/caches/transforms-1/files-1.1/youappi-sdk-android-4.0.3.yaga-SNAPSHOT.aar/f074c2a1f370412b0f682a0ae95c2cab/AndroidManifest.xml:7:5-9:41
MERGED from [com.android.support.constraint:constraint-layout:1.0.2] /Users/youappihome/.gradle/caches/transforms-1/files-1.1/constraint-layout-1.0.2.aar/b9b3c1f410109d119f6f1e2e685f0648/AndroidManifest.xml:5:5-7:41
MERGED from [com.android.support.constraint:constraint-layout:1.0.2] /Users/youappihome/.gradle/caches/transforms-1/files-1.1/constraint-layout-1.0.2.aar/b9b3c1f410109d119f6f1e2e685f0648/AndroidManifest.xml:5:5-7:41
MERGED from [com.crashlytics.sdk.android:crashlytics:2.9.1] /Users/youappihome/.gradle/caches/transforms-1/files-1.1/crashlytics-2.9.1.aar/af4bc2f059ed59efdf955e30ce821b8f/AndroidManifest.xml:7:5-43
MERGED from [com.crashlytics.sdk.android:crashlytics:2.9.1] /Users/youappihome/.gradle/caches/transforms-1/files-1.1/crashlytics-2.9.1.aar/af4bc2f059ed59efdf955e30ce821b8f/AndroidManifest.xml:7:5-43
MERGED from [com.dc289.sdk:ysdk:0.0.26] /Users/youappihome/.gradle/caches/transforms-1/files-1.1/ysdk-0.0.26.aar/a3db70af2abb02b0076826cee0e018f9/AndroidManifest.xml:7:5-9:41
MERGED from [com.dc289.sdk:ysdk:0.0.26] /Users/youappihome/.gradle/caches/transforms-1/files-1.1/ysdk-0.0.26.aar/a3db70af2abb02b0076826cee0e018f9/AndroidManifest.xml:7:5-9:41
MERGED from [com.android.support:appcompat-v7:26.1.0] /Users/youappihome/.gradle/caches/transforms-1/files-1.1/appcompat-v7-26.1.0.aar/d07059f01fbe9e2893745538a783099f/AndroidManifest.xml:21:5-23:78
MERGED from [com.android.support:appcompat-v7:26.1.0] /Users/youappihome/.gradle/caches/transforms-1/files-1.1/appcompat-v7-26.1.0.aar/d07059f01fbe9e2893745538a783099f/AndroidManifest.xml:21:5-23:78
MERGED from [com.android.support:animated-vector-drawable:26.1.0] /Users/youappihome/.gradle/caches/transforms-1/files-1.1/animated-vector-drawable-26.1.0.aar/afa14418563fd24ad9164ac57d02ccc0/AndroidManifest.xml:20:5-44
MERGED from [com.android.support:animated-vector-drawable:26.1.0] /Users/youappihome/.gradle/caches/transforms-1/files-1.1/animated-vector-drawable-26.1.0.aar/afa14418563fd24ad9164ac57d02ccc0/AndroidManifest.xml:20:5-44
MERGED from [com.android.support:support-vector-drawable:26.1.0] /Users/youappihome/.gradle/caches/transforms-1/files-1.1/support-vector-drawable-26.1.0.aar/46a747e780cae4a2a663ed980b7a1b1d/AndroidManifest.xml:20:5-44
MERGED from [com.android.support:support-vector-drawable:26.1.0] /Users/youappihome/.gradle/caches/transforms-1/files-1.1/support-vector-drawable-26.1.0.aar/46a747e780cae4a2a663ed980b7a1b1d/AndroidManifest.xml:20:5-44
MERGED from [com.google.android.gms:play-services-ads:11.8.0] /Users/youappihome/.gradle/caches/transforms-1/files-1.1/play-services-ads-11.8.0.aar/22c01573cf7ba8c1eb57213e85d22501/AndroidManifest.xml:21:5-23:62
MERGED from [com.google.android.gms:play-services-ads:11.8.0] /Users/youappihome/.gradle/caches/transforms-1/files-1.1/play-services-ads-11.8.0.aar/22c01573cf7ba8c1eb57213e85d22501/AndroidManifest.xml:21:5-23:62
MERGED from [com.google.android.gms:play-services-ads-lite:11.8.0] /Users/youappihome/.gradle/caches/transforms-1/files-1.1/play-services-ads-lite-11.8.0.aar/f7d16d4ffa8d9671734069a9c77ad83f/AndroidManifest.xml:20:5-44
MERGED from [com.google.android.gms:play-services-ads-lite:11.8.0] /Users/youappihome/.gradle/caches/transforms-1/files-1.1/play-services-ads-lite-11.8.0.aar/f7d16d4ffa8d9671734069a9c77ad83f/AndroidManifest.xml:20:5-44
MERGED from [com.google.android.gms:play-services-gass:11.8.0] /Users/youappihome/.gradle/caches/transforms-1/files-1.1/play-services-gass-11.8.0.aar/2b6de9cabc79e784181ee8c916b25ac2/AndroidManifest.xml:5:5-44
MERGED from [com.google.android.gms:play-services-gass:11.8.0] /Users/youappihome/.gradle/caches/transforms-1/files-1.1/play-services-gass-11.8.0.aar/2b6de9cabc79e784181ee8c916b25ac2/AndroidManifest.xml:5:5-44
MERGED from [com.google.android.gms:play-services-basement:11.8.0] /Users/youappihome/.gradle/caches/transforms-1/files-1.1/play-services-basement-11.8.0.aar/bae7b39b134e0dfdbece0c2bcab7d9b7/AndroidManifest.xml:20:5-44
MERGED from [com.google.android.gms:play-services-basement:11.8.0] /Users/youappihome/.gradle/caches/transforms-1/files-1.1/play-services-basement-11.8.0.aar/bae7b39b134e0dfdbece0c2bcab7d9b7/AndroidManifest.xml:20:5-44
MERGED from [com.android.support:support-v4:26.1.0] /Users/youappihome/.gradle/caches/transforms-1/files-1.1/support-v4-26.1.0.aar/c10d29a8c030eb07bfb8f9a14ec7db26/AndroidManifest.xml:21:5-23:54
MERGED from [com.android.support:support-v4:26.1.0] /Users/youappihome/.gradle/caches/transforms-1/files-1.1/support-v4-26.1.0.aar/c10d29a8c030eb07bfb8f9a14ec7db26/AndroidManifest.xml:21:5-23:54
MERGED from [com.android.support:support-fragment:26.1.0] /Users/youappihome/.gradle/caches/transforms-1/files-1.1/support-fragment-26.1.0.aar/00b6d48275e6f41710f4f70b67591395/AndroidManifest.xml:21:5-23:60
MERGED from [com.android.support:support-fragment:26.1.0] /Users/youappihome/.gradle/caches/transforms-1/files-1.1/support-fragment-26.1.0.aar/00b6d48275e6f41710f4f70b67591395/AndroidManifest.xml:21:5-23:60
MERGED from [com.android.support:support-core-ui:26.1.0] /Users/youappihome/.gradle/caches/transforms-1/files-1.1/support-core-ui-26.1.0.aar/24de06e5054a3b96b1bd565f24f95db2/AndroidManifest.xml:21:5-23:58
MERGED from [com.android.support:support-core-ui:26.1.0] /Users/youappihome/.gradle/caches/transforms-1/files-1.1/support-core-ui-26.1.0.aar/24de06e5054a3b96b1bd565f24f95db2/AndroidManifest.xml:21:5-23:58
MERGED from [com.android.support:support-media-compat:26.1.0] /Users/youappihome/.gradle/caches/transforms-1/files-1.1/support-media-compat-26.1.0.aar/16f862d850aec1eef76d9603939c5e96/AndroidManifest.xml:21:5-23:63
MERGED from [com.android.support:support-media-compat:26.1.0] /Users/youappihome/.gradle/caches/transforms-1/files-1.1/support-media-compat-26.1.0.aar/16f862d850aec1eef76d9603939c5e96/AndroidManifest.xml:21:5-23:63
MERGED from [com.android.support:support-core-utils:26.1.0] /Users/youappihome/.gradle/caches/transforms-1/files-1.1/support-core-utils-26.1.0.aar/316601fcf19404fb3ca7ee6a1f670d70/AndroidManifest.xml:21:5-23:61
MERGED from [com.android.support:support-core-utils:26.1.0] /Users/youappihome/.gradle/caches/transforms-1/files-1.1/support-core-utils-26.1.0.aar/316601fcf19404fb3ca7ee6a1f670d70/AndroidManifest.xml:21:5-23:61
MERGED from [com.android.support:support-compat:26.1.0] /Users/youappihome/.gradle/caches/transforms-1/files-1.1/support-compat-26.1.0.aar/5bce9d1c62379787897f61869d123024/AndroidManifest.xml:21:5-23:58
MERGED from [com.android.support:support-compat:26.1.0] /Users/youappihome/.gradle/caches/transforms-1/files-1.1/support-compat-26.1.0.aar/5bce9d1c62379787897f61869d123024/AndroidManifest.xml:21:5-23:58
MERGED from [com.crashlytics.sdk.android:beta:1.2.7] /Users/youappihome/.gradle/caches/transforms-1/files-1.1/beta-1.2.7.aar/26ae93b8e0df0325bee8efc929d60d70/AndroidManifest.xml:7:5-43
MERGED from [com.crashlytics.sdk.android:beta:1.2.7] /Users/youappihome/.gradle/caches/transforms-1/files-1.1/beta-1.2.7.aar/26ae93b8e0df0325bee8efc929d60d70/AndroidManifest.xml:7:5-43
MERGED from [com.crashlytics.sdk.android:crashlytics-core:2.6.1] /Users/youappihome/.gradle/caches/transforms-1/files-1.1/crashlytics-core-2.6.1.aar/91433c0dedaaabc50f82b46687764e17/AndroidManifest.xml:50:5-43
MERGED from [com.crashlytics.sdk.android:crashlytics-core:2.6.1] /Users/youappihome/.gradle/caches/transforms-1/files-1.1/crashlytics-core-2.6.1.aar/91433c0dedaaabc50f82b46687764e17/AndroidManifest.xml:50:5-43
MERGED from [com.crashlytics.sdk.android:answers:1.4.1] /Users/youappihome/.gradle/caches/transforms-1/files-1.1/answers-1.4.1.aar/f1ab77b7e5dfc6547ffcf54126f01b1f/AndroidManifest.xml:7:5-43
MERGED from [com.crashlytics.sdk.android:answers:1.4.1] /Users/youappihome/.gradle/caches/transforms-1/files-1.1/answers-1.4.1.aar/f1ab77b7e5dfc6547ffcf54126f01b1f/AndroidManifest.xml:7:5-43
MERGED from [io.fabric.sdk.android:fabric:1.4.2] /Users/youappihome/.gradle/caches/transforms-1/files-1.1/fabric-1.4.2.aar/10cdeb5e471bded91129210ee5db19b6/AndroidManifest.xml:27:5-43
MERGED from [io.fabric.sdk.android:fabric:1.4.2] /Users/youappihome/.gradle/caches/transforms-1/files-1.1/fabric-1.4.2.aar/10cdeb5e471bded91129210ee5db19b6/AndroidManifest.xml:27:5-43
MERGED from [com.google.android.gms:play-services-ads-lite-license:11.8.0] /Users/youappihome/.gradle/caches/transforms-1/files-1.1/play-services-ads-lite-license-11.8.0.aar/f465e3c4a010eb9d32d6ba349b897af3/AndroidManifest.xml:4:5-43
MERGED from [com.google.android.gms:play-services-ads-lite-license:11.8.0] /Users/youappihome/.gradle/caches/transforms-1/files-1.1/play-services-ads-lite-license-11.8.0.aar/f465e3c4a010eb9d32d6ba349b897af3/AndroidManifest.xml:4:5-43
MERGED from [com.google.android.gms:play-services-basement-license:11.8.0] /Users/youappihome/.gradle/caches/transforms-1/files-1.1/play-services-basement-license-11.8.0.aar/1152de9efdf5a031fca20eb3d7000d98/AndroidManifest.xml:4:5-43
MERGED from [com.google.android.gms:play-services-basement-license:11.8.0] /Users/youappihome/.gradle/caches/transforms-1/files-1.1/play-services-basement-license-11.8.0.aar/1152de9efdf5a031fca20eb3d7000d98/AndroidManifest.xml:4:5-43
MERGED from [com.google.android.gms:play-services-ads-license:11.8.0] /Users/youappihome/.gradle/caches/transforms-1/files-1.1/play-services-ads-license-11.8.0.aar/67838e7717e684b77daf50bfe0c8ab43/AndroidManifest.xml:4:5-43
MERGED from [com.google.android.gms:play-services-ads-license:11.8.0] /Users/youappihome/.gradle/caches/transforms-1/files-1.1/play-services-ads-license-11.8.0.aar/67838e7717e684b77daf50bfe0c8ab43/AndroidManifest.xml:4:5-43
MERGED from [com.google.android.gms:play-services-gass-license:11.8.0] /Users/youappihome/.gradle/caches/transforms-1/files-1.1/play-services-gass-license-11.8.0.aar/adba3558900b42b651743fc7ce7c35ab/AndroidManifest.xml:4:5-43
MERGED from [com.google.android.gms:play-services-gass-license:11.8.0] /Users/youappihome/.gradle/caches/transforms-1/files-1.1/play-services-gass-license-11.8.0.aar/adba3558900b42b651743fc7ce7c35ab/AndroidManifest.xml:4:5-43
MERGED from [android.arch.lifecycle:runtime:1.0.0] /Users/youappihome/.gradle/caches/transforms-1/files-1.1/runtime-1.0.0.aar/db657a79654dca931838f960421ac268/AndroidManifest.xml:20:5-22:41
MERGED from [android.arch.lifecycle:runtime:1.0.0] /Users/youappihome/.gradle/caches/transforms-1/files-1.1/runtime-1.0.0.aar/db657a79654dca931838f960421ac268/AndroidManifest.xml:20:5-22:41
INJECTED from /Users/youappihome/Android Projects/Teams/app/src/main/AndroidManifest.xml:8:5-10:41
INJECTED from /Users/youappihome/Android Projects/Teams/app/src/main/AndroidManifest.xml:8:5-10:41
	tools:overrideLibrary
		ADDED from [com.android.support:appcompat-v7:26.1.0] /Users/youappihome/.gradle/caches/transforms-1/files-1.1/appcompat-v7-26.1.0.aar/d07059f01fbe9e2893745538a783099f/AndroidManifest.xml:23:9-75
	android:targetSdkVersion
		ADDED from /Users/youappihome/Android Projects/Teams/app/src/main/AndroidManifest.xml:10:9-38
		INJECTED from /Users/youappihome/Android Projects/Teams/app/src/main/AndroidManifest.xml
		INJECTED from /Users/youappihome/Android Projects/Teams/app/src/main/AndroidManifest.xml
	android:minSdkVersion
		ADDED from /Users/youappihome/Android Projects/Teams/app/src/main/AndroidManifest.xml:9:9-35
		INJECTED from /Users/youappihome/Android Projects/Teams/app/src/main/AndroidManifest.xml
		INJECTED from /Users/youappihome/Android Projects/Teams/app/src/main/AndroidManifest.xml
uses-permission#android.permission.INTERNET
ADDED from /Users/youappihome/Android Projects/Teams/app/src/main/AndroidManifest.xml:12:5-66
MERGED from [com.youappi.sdk:youappi-sdk-android:4.0.3.yaga-SNAPSHOT] /Users/youappihome/.gradle/caches/transforms-1/files-1.1/youappi-sdk-android-4.0.3.yaga-SNAPSHOT.aar/f074c2a1f370412b0f682a0ae95c2cab/AndroidManifest.xml:11:5-67
MERGED from [com.youappi.sdk:youappi-sdk-android:4.0.3.yaga-SNAPSHOT] /Users/youappihome/.gradle/caches/transforms-1/files-1.1/youappi-sdk-android-4.0.3.yaga-SNAPSHOT.aar/f074c2a1f370412b0f682a0ae95c2cab/AndroidManifest.xml:11:5-67
MERGED from [com.crashlytics.sdk.android:crashlytics:2.9.1] /Users/youappihome/.gradle/caches/transforms-1/files-1.1/crashlytics-2.9.1.aar/af4bc2f059ed59efdf955e30ce821b8f/AndroidManifest.xml:9:5-67
MERGED from [com.crashlytics.sdk.android:crashlytics:2.9.1] /Users/youappihome/.gradle/caches/transforms-1/files-1.1/crashlytics-2.9.1.aar/af4bc2f059ed59efdf955e30ce821b8f/AndroidManifest.xml:9:5-67
MERGED from [com.dc289.sdk:ysdk:0.0.26] /Users/youappihome/.gradle/caches/transforms-1/files-1.1/ysdk-0.0.26.aar/a3db70af2abb02b0076826cee0e018f9/AndroidManifest.xml:11:5-67
MERGED from [com.dc289.sdk:ysdk:0.0.26] /Users/youappihome/.gradle/caches/transforms-1/files-1.1/ysdk-0.0.26.aar/a3db70af2abb02b0076826cee0e018f9/AndroidManifest.xml:11:5-67
MERGED from [com.google.android.gms:play-services-ads-lite:11.8.0] /Users/youappihome/.gradle/caches/transforms-1/files-1.1/play-services-ads-lite-11.8.0.aar/f7d16d4ffa8d9671734069a9c77ad83f/AndroidManifest.xml:23:5-67
MERGED from [com.google.android.gms:play-services-ads-lite:11.8.0] /Users/youappihome/.gradle/caches/transforms-1/files-1.1/play-services-ads-lite-11.8.0.aar/f7d16d4ffa8d9671734069a9c77ad83f/AndroidManifest.xml:23:5-67
MERGED from [com.crashlytics.sdk.android:beta:1.2.7] /Users/youappihome/.gradle/caches/transforms-1/files-1.1/beta-1.2.7.aar/26ae93b8e0df0325bee8efc929d60d70/AndroidManifest.xml:9:5-67
MERGED from [com.crashlytics.sdk.android:beta:1.2.7] /Users/youappihome/.gradle/caches/transforms-1/files-1.1/beta-1.2.7.aar/26ae93b8e0df0325bee8efc929d60d70/AndroidManifest.xml:9:5-67
MERGED from [com.crashlytics.sdk.android:crashlytics-core:2.6.1] /Users/youappihome/.gradle/caches/transforms-1/files-1.1/crashlytics-core-2.6.1.aar/91433c0dedaaabc50f82b46687764e17/AndroidManifest.xml:52:5-67
MERGED from [com.crashlytics.sdk.android:crashlytics-core:2.6.1] /Users/youappihome/.gradle/caches/transforms-1/files-1.1/crashlytics-core-2.6.1.aar/91433c0dedaaabc50f82b46687764e17/AndroidManifest.xml:52:5-67
MERGED from [com.crashlytics.sdk.android:answers:1.4.1] /Users/youappihome/.gradle/caches/transforms-1/files-1.1/answers-1.4.1.aar/f1ab77b7e5dfc6547ffcf54126f01b1f/AndroidManifest.xml:9:5-67
MERGED from [com.crashlytics.sdk.android:answers:1.4.1] /Users/youappihome/.gradle/caches/transforms-1/files-1.1/answers-1.4.1.aar/f1ab77b7e5dfc6547ffcf54126f01b1f/AndroidManifest.xml:9:5-67
MERGED from [io.fabric.sdk.android:fabric:1.4.2] /Users/youappihome/.gradle/caches/transforms-1/files-1.1/fabric-1.4.2.aar/10cdeb5e471bded91129210ee5db19b6/AndroidManifest.xml:29:5-67
MERGED from [io.fabric.sdk.android:fabric:1.4.2] /Users/youappihome/.gradle/caches/transforms-1/files-1.1/fabric-1.4.2.aar/10cdeb5e471bded91129210ee5db19b6/AndroidManifest.xml:29:5-67
	android:name
		ADDED from /Users/youappihome/Android Projects/Teams/app/src/main/AndroidManifest.xml:12:22-64
uses-permission#android.permission.WRITE_EXTERNAL_STORAGE
ADDED from /Users/youappihome/Android Projects/Teams/app/src/main/AndroidManifest.xml:13:5-80
MERGED from [com.youappi.sdk:youappi-sdk-android:4.0.3.yaga-SNAPSHOT] /Users/youappihome/.gradle/caches/transforms-1/files-1.1/youappi-sdk-android-4.0.3.yaga-SNAPSHOT.aar/f074c2a1f370412b0f682a0ae95c2cab/AndroidManifest.xml:12:5-81
MERGED from [com.youappi.sdk:youappi-sdk-android:4.0.3.yaga-SNAPSHOT] /Users/youappihome/.gradle/caches/transforms-1/files-1.1/youappi-sdk-android-4.0.3.yaga-SNAPSHOT.aar/f074c2a1f370412b0f682a0ae95c2cab/AndroidManifest.xml:12:5-81
	android:name
		ADDED from /Users/youappihome/Android Projects/Teams/app/src/main/AndroidManifest.xml:13:22-78
uses-permission#android.permission.READ_EXTERNAL_STORAGE
ADDED from /Users/youappihome/Android Projects/Teams/app/src/main/AndroidManifest.xml:14:5-79
MERGED from [com.youappi.sdk:youappi-sdk-android:4.0.3.yaga-SNAPSHOT] /Users/youappihome/.gradle/caches/transforms-1/files-1.1/youappi-sdk-android-4.0.3.yaga-SNAPSHOT.aar/f074c2a1f370412b0f682a0ae95c2cab/AndroidManifest.xml:13:5-80
MERGED from [com.youappi.sdk:youappi-sdk-android:4.0.3.yaga-SNAPSHOT] /Users/youappihome/.gradle/caches/transforms-1/files-1.1/youappi-sdk-android-4.0.3.yaga-SNAPSHOT.aar/f074c2a1f370412b0f682a0ae95c2cab/AndroidManifest.xml:13:5-80
	android:name
		ADDED from /Users/youappihome/Android Projects/Teams/app/src/main/AndroidManifest.xml:14:22-77
application
ADDED from /Users/youappihome/Android Projects/Teams/app/src/main/AndroidManifest.xml:16:5-52:19
MERGED from [com.getbase:floatingactionbutton:1.9.0] /Users/youappihome/.gradle/caches/transforms-1/files-1.1/floatingactionbutton-1.9.0.aar/ad9f00499e420173bf784250192a8b7f/AndroidManifest.xml:12:5-20
MERGED from [com.getbase:floatingactionbutton:1.9.0] /Users/youappihome/.gradle/caches/transforms-1/files-1.1/floatingactionbutton-1.9.0.aar/ad9f00499e420173bf784250192a8b7f/AndroidManifest.xml:12:5-20
MERGED from [com.youappi.sdk:youappi-sdk-android:4.0.3.yaga-SNAPSHOT] /Users/youappihome/.gradle/caches/transforms-1/files-1.1/youappi-sdk-android-4.0.3.yaga-SNAPSHOT.aar/f074c2a1f370412b0f682a0ae95c2cab/AndroidManifest.xml:15:5-19:19
MERGED from [com.youappi.sdk:youappi-sdk-android:4.0.3.yaga-SNAPSHOT] /Users/youappihome/.gradle/caches/transforms-1/files-1.1/youappi-sdk-android-4.0.3.yaga-SNAPSHOT.aar/f074c2a1f370412b0f682a0ae95c2cab/AndroidManifest.xml:15:5-19:19
MERGED from [com.android.support.constraint:constraint-layout:1.0.2] /Users/youappihome/.gradle/caches/transforms-1/files-1.1/constraint-layout-1.0.2.aar/b9b3c1f410109d119f6f1e2e685f0648/AndroidManifest.xml:9:5-20
MERGED from [com.android.support.constraint:constraint-layout:1.0.2] /Users/youappihome/.gradle/caches/transforms-1/files-1.1/constraint-layout-1.0.2.aar/b9b3c1f410109d119f6f1e2e685f0648/AndroidManifest.xml:9:5-20
MERGED from [com.crashlytics.sdk.android:crashlytics:2.9.1] /Users/youappihome/.gradle/caches/transforms-1/files-1.1/crashlytics-2.9.1.aar/af4bc2f059ed59efdf955e30ce821b8f/AndroidManifest.xml:11:5-17:19
MERGED from [com.crashlytics.sdk.android:crashlytics:2.9.1] /Users/youappihome/.gradle/caches/transforms-1/files-1.1/crashlytics-2.9.1.aar/af4bc2f059ed59efdf955e30ce821b8f/AndroidManifest.xml:11:5-17:19
MERGED from [com.dc289.sdk:ysdk:0.0.26] /Users/youappihome/.gradle/caches/transforms-1/files-1.1/ysdk-0.0.26.aar/a3db70af2abb02b0076826cee0e018f9/AndroidManifest.xml:16:5-30:19
MERGED from [com.dc289.sdk:ysdk:0.0.26] /Users/youappihome/.gradle/caches/transforms-1/files-1.1/ysdk-0.0.26.aar/a3db70af2abb02b0076826cee0e018f9/AndroidManifest.xml:16:5-30:19
MERGED from [com.android.support:appcompat-v7:26.1.0] /Users/youappihome/.gradle/caches/transforms-1/files-1.1/appcompat-v7-26.1.0.aar/d07059f01fbe9e2893745538a783099f/AndroidManifest.xml:25:5-29:19
MERGED from [com.android.support:appcompat-v7:26.1.0] /Users/youappihome/.gradle/caches/transforms-1/files-1.1/appcompat-v7-26.1.0.aar/d07059f01fbe9e2893745538a783099f/AndroidManifest.xml:25:5-29:19
MERGED from [com.android.support:animated-vector-drawable:26.1.0] /Users/youappihome/.gradle/caches/transforms-1/files-1.1/animated-vector-drawable-26.1.0.aar/afa14418563fd24ad9164ac57d02ccc0/AndroidManifest.xml:22:5-26:19
MERGED from [com.android.support:animated-vector-drawable:26.1.0] /Users/youappihome/.gradle/caches/transforms-1/files-1.1/animated-vector-drawable-26.1.0.aar/afa14418563fd24ad9164ac57d02ccc0/AndroidManifest.xml:22:5-26:19
MERGED from [com.android.support:support-vector-drawable:26.1.0] /Users/youappihome/.gradle/caches/transforms-1/files-1.1/support-vector-drawable-26.1.0.aar/46a747e780cae4a2a663ed980b7a1b1d/AndroidManifest.xml:22:5-26:19
MERGED from [com.android.support:support-vector-drawable:26.1.0] /Users/youappihome/.gradle/caches/transforms-1/files-1.1/support-vector-drawable-26.1.0.aar/46a747e780cae4a2a663ed980b7a1b1d/AndroidManifest.xml:22:5-26:19
MERGED from [com.google.android.gms:play-services-ads-lite:11.8.0] /Users/youappihome/.gradle/caches/transforms-1/files-1.1/play-services-ads-lite-11.8.0.aar/f7d16d4ffa8d9671734069a9c77ad83f/AndroidManifest.xml:26:5-34:19
MERGED from [com.google.android.gms:play-services-ads-lite:11.8.0] /Users/youappihome/.gradle/caches/transforms-1/files-1.1/play-services-ads-lite-11.8.0.aar/f7d16d4ffa8d9671734069a9c77ad83f/AndroidManifest.xml:26:5-34:19
MERGED from [com.google.android.gms:play-services-gass:11.8.0] /Users/youappihome/.gradle/caches/transforms-1/files-1.1/play-services-gass-11.8.0.aar/2b6de9cabc79e784181ee8c916b25ac2/AndroidManifest.xml:7:5-20
MERGED from [com.google.android.gms:play-services-gass:11.8.0] /Users/youappihome/.gradle/caches/transforms-1/files-1.1/play-services-gass-11.8.0.aar/2b6de9cabc79e784181ee8c916b25ac2/AndroidManifest.xml:7:5-20
MERGED from [com.google.android.gms:play-services-basement:11.8.0] /Users/youappihome/.gradle/caches/transforms-1/files-1.1/play-services-basement-11.8.0.aar/bae7b39b134e0dfdbece0c2bcab7d9b7/AndroidManifest.xml:22:5-26:19
MERGED from [com.google.android.gms:play-services-basement:11.8.0] /Users/youappihome/.gradle/caches/transforms-1/files-1.1/play-services-basement-11.8.0.aar/bae7b39b134e0dfdbece0c2bcab7d9b7/AndroidManifest.xml:22:5-26:19
MERGED from [com.android.support:support-v4:26.1.0] /Users/youappihome/.gradle/caches/transforms-1/files-1.1/support-v4-26.1.0.aar/c10d29a8c030eb07bfb8f9a14ec7db26/AndroidManifest.xml:25:5-29:19
MERGED from [com.android.support:support-v4:26.1.0] /Users/youappihome/.gradle/caches/transforms-1/files-1.1/support-v4-26.1.0.aar/c10d29a8c030eb07bfb8f9a14ec7db26/AndroidManifest.xml:25:5-29:19
MERGED from [com.android.support:support-fragment:26.1.0] /Users/youappihome/.gradle/caches/transforms-1/files-1.1/support-fragment-26.1.0.aar/00b6d48275e6f41710f4f70b67591395/AndroidManifest.xml:25:5-29:19
MERGED from [com.android.support:support-fragment:26.1.0] /Users/youappihome/.gradle/caches/transforms-1/files-1.1/support-fragment-26.1.0.aar/00b6d48275e6f41710f4f70b67591395/AndroidManifest.xml:25:5-29:19
MERGED from [com.android.support:support-core-ui:26.1.0] /Users/youappihome/.gradle/caches/transforms-1/files-1.1/support-core-ui-26.1.0.aar/24de06e5054a3b96b1bd565f24f95db2/AndroidManifest.xml:25:5-29:19
MERGED from [com.android.support:support-core-ui:26.1.0] /Users/youappihome/.gradle/caches/transforms-1/files-1.1/support-core-ui-26.1.0.aar/24de06e5054a3b96b1bd565f24f95db2/AndroidManifest.xml:25:5-29:19
MERGED from [com.android.support:support-media-compat:26.1.0] /Users/youappihome/.gradle/caches/transforms-1/files-1.1/support-media-compat-26.1.0.aar/16f862d850aec1eef76d9603939c5e96/AndroidManifest.xml:25:5-29:19
MERGED from [com.android.support:support-media-compat:26.1.0] /Users/youappihome/.gradle/caches/transforms-1/files-1.1/support-media-compat-26.1.0.aar/16f862d850aec1eef76d9603939c5e96/AndroidManifest.xml:25:5-29:19
MERGED from [com.android.support:support-core-utils:26.1.0] /Users/youappihome/.gradle/caches/transforms-1/files-1.1/support-core-utils-26.1.0.aar/316601fcf19404fb3ca7ee6a1f670d70/AndroidManifest.xml:25:5-29:19
MERGED from [com.android.support:support-core-utils:26.1.0] /Users/youappihome/.gradle/caches/transforms-1/files-1.1/support-core-utils-26.1.0.aar/316601fcf19404fb3ca7ee6a1f670d70/AndroidManifest.xml:25:5-29:19
MERGED from [com.android.support:support-compat:26.1.0] /Users/youappihome/.gradle/caches/transforms-1/files-1.1/support-compat-26.1.0.aar/5bce9d1c62379787897f61869d123024/AndroidManifest.xml:25:5-29:19
MERGED from [com.android.support:support-compat:26.1.0] /Users/youappihome/.gradle/caches/transforms-1/files-1.1/support-compat-26.1.0.aar/5bce9d1c62379787897f61869d123024/AndroidManifest.xml:25:5-29:19
MERGED from [com.crashlytics.sdk.android:beta:1.2.7] /Users/youappihome/.gradle/caches/transforms-1/files-1.1/beta-1.2.7.aar/26ae93b8e0df0325bee8efc929d60d70/AndroidManifest.xml:11:5-20
MERGED from [com.crashlytics.sdk.android:beta:1.2.7] /Users/youappihome/.gradle/caches/transforms-1/files-1.1/beta-1.2.7.aar/26ae93b8e0df0325bee8efc929d60d70/AndroidManifest.xml:11:5-20
MERGED from [com.crashlytics.sdk.android:crashlytics-core:2.6.1] /Users/youappihome/.gradle/caches/transforms-1/files-1.1/crashlytics-core-2.6.1.aar/91433c0dedaaabc50f82b46687764e17/AndroidManifest.xml:54:5-20
MERGED from [com.crashlytics.sdk.android:crashlytics-core:2.6.1] /Users/youappihome/.gradle/caches/transforms-1/files-1.1/crashlytics-core-2.6.1.aar/91433c0dedaaabc50f82b46687764e17/AndroidManifest.xml:54:5-20
MERGED from [com.crashlytics.sdk.android:answers:1.4.1] /Users/youappihome/.gradle/caches/transforms-1/files-1.1/answers-1.4.1.aar/f1ab77b7e5dfc6547ffcf54126f01b1f/AndroidManifest.xml:11:5-20
MERGED from [com.crashlytics.sdk.android:answers:1.4.1] /Users/youappihome/.gradle/caches/transforms-1/files-1.1/answers-1.4.1.aar/f1ab77b7e5dfc6547ffcf54126f01b1f/AndroidManifest.xml:11:5-20
MERGED from [io.fabric.sdk.android:fabric:1.4.2] /Users/youappihome/.gradle/caches/transforms-1/files-1.1/fabric-1.4.2.aar/10cdeb5e471bded91129210ee5db19b6/AndroidManifest.xml:31:5-20
MERGED from [io.fabric.sdk.android:fabric:1.4.2] /Users/youappihome/.gradle/caches/transforms-1/files-1.1/fabric-1.4.2.aar/10cdeb5e471bded91129210ee5db19b6/AndroidManifest.xml:31:5-20
MERGED from [com.google.android.gms:play-services-ads-lite-license:11.8.0] /Users/youappihome/.gradle/caches/transforms-1/files-1.1/play-services-ads-lite-license-11.8.0.aar/f465e3c4a010eb9d32d6ba349b897af3/AndroidManifest.xml:5:5-20
MERGED from [com.google.android.gms:play-services-ads-lite-license:11.8.0] /Users/youappihome/.gradle/caches/transforms-1/files-1.1/play-services-ads-lite-license-11.8.0.aar/f465e3c4a010eb9d32d6ba349b897af3/AndroidManifest.xml:5:5-20
MERGED from [com.google.android.gms:play-services-basement-license:11.8.0] /Users/youappihome/.gradle/caches/transforms-1/files-1.1/play-services-basement-license-11.8.0.aar/1152de9efdf5a031fca20eb3d7000d98/AndroidManifest.xml:5:5-20
MERGED from [com.google.android.gms:play-services-basement-license:11.8.0] /Users/youappihome/.gradle/caches/transforms-1/files-1.1/play-services-basement-license-11.8.0.aar/1152de9efdf5a031fca20eb3d7000d98/AndroidManifest.xml:5:5-20
MERGED from [com.google.android.gms:play-services-ads-license:11.8.0] /Users/youappihome/.gradle/caches/transforms-1/files-1.1/play-services-ads-license-11.8.0.aar/67838e7717e684b77daf50bfe0c8ab43/AndroidManifest.xml:5:5-20
MERGED from [com.google.android.gms:play-services-ads-license:11.8.0] /Users/youappihome/.gradle/caches/transforms-1/files-1.1/play-services-ads-license-11.8.0.aar/67838e7717e684b77daf50bfe0c8ab43/AndroidManifest.xml:5:5-20
MERGED from [com.google.android.gms:play-services-gass-license:11.8.0] /Users/youappihome/.gradle/caches/transforms-1/files-1.1/play-services-gass-license-11.8.0.aar/adba3558900b42b651743fc7ce7c35ab/AndroidManifest.xml:5:5-20
MERGED from [com.google.android.gms:play-services-gass-license:11.8.0] /Users/youappihome/.gradle/caches/transforms-1/files-1.1/play-services-gass-license-11.8.0.aar/adba3558900b42b651743fc7ce7c35ab/AndroidManifest.xml:5:5-20
MERGED from [android.arch.lifecycle:runtime:1.0.0] /Users/youappihome/.gradle/caches/transforms-1/files-1.1/runtime-1.0.0.aar/db657a79654dca931838f960421ac268/AndroidManifest.xml:24:5-28:19
MERGED from [android.arch.lifecycle:runtime:1.0.0] /Users/youappihome/.gradle/caches/transforms-1/files-1.1/runtime-1.0.0.aar/db657a79654dca931838f960421ac268/AndroidManifest.xml:24:5-28:19
	android:supportsRtl
		ADDED from /Users/youappihome/Android Projects/Teams/app/src/main/AndroidManifest.xml:24:9-35
	android:label
		ADDED from /Users/youappihome/Android Projects/Teams/app/src/main/AndroidManifest.xml:22:9-49
		REJECTED from [com.youappi.sdk:youappi-sdk-android:4.0.3.yaga-SNAPSHOT] /Users/youappihome/.gradle/caches/transforms-1/files-1.1/youappi-sdk-android-4.0.3.yaga-SNAPSHOT.aar/f074c2a1f370412b0f682a0ae95c2cab/AndroidManifest.xml:15:18-50
	android:roundIcon
		ADDED from /Users/youappihome/Android Projects/Teams/app/src/main/AndroidManifest.xml:23:9-54
	android:configChanges
		ADDED from /Users/youappihome/Android Projects/Teams/app/src/main/AndroidManifest.xml:19:9-55
	android:icon
		ADDED from /Users/youappihome/Android Projects/Teams/app/src/main/AndroidManifest.xml:21:9-43
	android:allowBackup
		ADDED from /Users/youappihome/Android Projects/Teams/app/src/main/AndroidManifest.xml:20:9-35
	android:theme
		ADDED from /Users/youappihome/Android Projects/Teams/app/src/main/AndroidManifest.xml:25:9-40
	tools:replace
		ADDED from /Users/youappihome/Android Projects/Teams/app/src/main/AndroidManifest.xml:18:9-38
	android:name
		ADDED from /Users/youappihome/Android Projects/Teams/app/src/main/AndroidManifest.xml:17:9-56
activity#com.youappi.teamsdistributor.GenerateActivity
ADDED from /Users/youappihome/Android Projects/Teams/app/src/main/AndroidManifest.xml:27:9-36:20
	android:screenOrientation
		ADDED from /Users/youappihome/Android Projects/Teams/app/src/main/AndroidManifest.xml:30:13-49
	android:label
		ADDED from /Users/youappihome/Android Projects/Teams/app/src/main/AndroidManifest.xml:29:13-53
	android:name
		ADDED from /Users/youappihome/Android Projects/Teams/app/src/main/AndroidManifest.xml:28:13-73
intent-filter#action:name:android.intent.action.MAIN+category:name:android.intent.category.LAUNCHER
ADDED from /Users/youappihome/Android Projects/Teams/app/src/main/AndroidManifest.xml:31:13-35:29
action#android.intent.action.MAIN
ADDED from /Users/youappihome/Android Projects/Teams/app/src/main/AndroidManifest.xml:32:17-69
	android:name
		ADDED from /Users/youappihome/Android Projects/Teams/app/src/main/AndroidManifest.xml:32:25-66
category#android.intent.category.LAUNCHER
ADDED from /Users/youappihome/Android Projects/Teams/app/src/main/AndroidManifest.xml:34:17-77
	android:name
		ADDED from /Users/youappihome/Android Projects/Teams/app/src/main/AndroidManifest.xml:34:27-74
activity#com.youappi.teamsdistributor.RandomizeActivity
ADDED from /Users/youappihome/Android Projects/Teams/app/src/main/AndroidManifest.xml:38:9-42:20
	android:screenOrientation
		ADDED from /Users/youappihome/Android Projects/Teams/app/src/main/AndroidManifest.xml:41:13-49
	android:label
		ADDED from /Users/youappihome/Android Projects/Teams/app/src/main/AndroidManifest.xml:40:13-53
	android:name
		ADDED from /Users/youappihome/Android Projects/Teams/app/src/main/AndroidManifest.xml:39:13-74
activity#com.youappi.teamsdistributor.DeleteActivity
ADDED from /Users/youappihome/Android Projects/Teams/app/src/main/AndroidManifest.xml:44:9-48:20
	android:screenOrientation
		ADDED from /Users/youappihome/Android Projects/Teams/app/src/main/AndroidManifest.xml:47:13-49
	android:label
		ADDED from /Users/youappihome/Android Projects/Teams/app/src/main/AndroidManifest.xml:46:13-53
	android:name
		ADDED from /Users/youappihome/Android Projects/Teams/app/src/main/AndroidManifest.xml:45:13-71
meta-data#io.fabric.ApiKey
ADDED from /Users/youappihome/Android Projects/Teams/app/src/main/AndroidManifest.xml:49:9-51:72
	android:value
		ADDED from /Users/youappihome/Android Projects/Teams/app/src/main/AndroidManifest.xml:51:13-69
	android:name
		ADDED from /Users/youappihome/Android Projects/Teams/app/src/main/AndroidManifest.xml:50:13-44
activity#com.youappi.ai.sdk.AdActivity
ADDED from [com.youappi.sdk:youappi-sdk-android:4.0.3.yaga-SNAPSHOT] /Users/youappihome/.gradle/caches/transforms-1/files-1.1/youappi-sdk-android-4.0.3.yaga-SNAPSHOT.aar/f074c2a1f370412b0f682a0ae95c2cab/AndroidManifest.xml:16:9-18:62
	android:configChanges
		ADDED from [com.youappi.sdk:youappi-sdk-android:4.0.3.yaga-SNAPSHOT] /Users/youappihome/.gradle/caches/transforms-1/files-1.1/youappi-sdk-android-4.0.3.yaga-SNAPSHOT.aar/f074c2a1f370412b0f682a0ae95c2cab/AndroidManifest.xml:18:13-59
	android:name
		ADDED from [com.youappi.sdk:youappi-sdk-android:4.0.3.yaga-SNAPSHOT] /Users/youappihome/.gradle/caches/transforms-1/files-1.1/youappi-sdk-android-4.0.3.yaga-SNAPSHOT.aar/f074c2a1f370412b0f682a0ae95c2cab/AndroidManifest.xml:17:13-57
provider#com.crashlytics.android.CrashlyticsInitProvider
ADDED from [com.crashlytics.sdk.android:crashlytics:2.9.1] /Users/youappihome/.gradle/caches/transforms-1/files-1.1/crashlytics-2.9.1.aar/af4bc2f059ed59efdf955e30ce821b8f/AndroidManifest.xml:12:9-16:39
	android:authorities
		ADDED from [com.crashlytics.sdk.android:crashlytics:2.9.1] /Users/youappihome/.gradle/caches/transforms-1/files-1.1/crashlytics-2.9.1.aar/af4bc2f059ed59efdf955e30ce821b8f/AndroidManifest.xml:14:13-75
	android:exported
		ADDED from [com.crashlytics.sdk.android:crashlytics:2.9.1] /Users/youappihome/.gradle/caches/transforms-1/files-1.1/crashlytics-2.9.1.aar/af4bc2f059ed59efdf955e30ce821b8f/AndroidManifest.xml:15:13-37
	android:initOrder
		ADDED from [com.crashlytics.sdk.android:crashlytics:2.9.1] /Users/youappihome/.gradle/caches/transforms-1/files-1.1/crashlytics-2.9.1.aar/af4bc2f059ed59efdf955e30ce821b8f/AndroidManifest.xml:16:13-36
	android:name
		ADDED from [com.crashlytics.sdk.android:crashlytics:2.9.1] /Users/youappihome/.gradle/caches/transforms-1/files-1.1/crashlytics-2.9.1.aar/af4bc2f059ed59efdf955e30ce821b8f/AndroidManifest.xml:13:13-75
uses-permission#android.permission.ACCESS_NETWORK_STATE
ADDED from [com.dc289.sdk:ysdk:0.0.26] /Users/youappihome/.gradle/caches/transforms-1/files-1.1/ysdk-0.0.26.aar/a3db70af2abb02b0076826cee0e018f9/AndroidManifest.xml:12:5-79
MERGED from [com.google.android.gms:play-services-ads-lite:11.8.0] /Users/youappihome/.gradle/caches/transforms-1/files-1.1/play-services-ads-lite-11.8.0.aar/f7d16d4ffa8d9671734069a9c77ad83f/AndroidManifest.xml:24:5-79
MERGED from [com.google.android.gms:play-services-ads-lite:11.8.0] /Users/youappihome/.gradle/caches/transforms-1/files-1.1/play-services-ads-lite-11.8.0.aar/f7d16d4ffa8d9671734069a9c77ad83f/AndroidManifest.xml:24:5-79
	android:name
		ADDED from [com.dc289.sdk:ysdk:0.0.26] /Users/youappihome/.gradle/caches/transforms-1/files-1.1/ysdk-0.0.26.aar/a3db70af2abb02b0076826cee0e018f9/AndroidManifest.xml:12:22-76
uses-permission#android.permission.READ_PHONE_STATE
ADDED from [com.dc289.sdk:ysdk:0.0.26] /Users/youappihome/.gradle/caches/transforms-1/files-1.1/ysdk-0.0.26.aar/a3db70af2abb02b0076826cee0e018f9/AndroidManifest.xml:13:5-75
	android:name
		ADDED from [com.dc289.sdk:ysdk:0.0.26] /Users/youappihome/.gradle/caches/transforms-1/files-1.1/ysdk-0.0.26.aar/a3db70af2abb02b0076826cee0e018f9/AndroidManifest.xml:13:22-72
uses-permission#android.permission.RECEIVE_BOOT_COMPLETED
ADDED from [com.dc289.sdk:ysdk:0.0.26] /Users/youappihome/.gradle/caches/transforms-1/files-1.1/ysdk-0.0.26.aar/a3db70af2abb02b0076826cee0e018f9/AndroidManifest.xml:14:5-81
	android:name
		ADDED from [com.dc289.sdk:ysdk:0.0.26] /Users/youappihome/.gradle/caches/transforms-1/files-1.1/ysdk-0.0.26.aar/a3db70af2abb02b0076826cee0e018f9/AndroidManifest.xml:14:22-78
service#com.yaga.ysdk.background_service.SendDataService
ADDED from [com.dc289.sdk:ysdk:0.0.26] /Users/youappihome/.gradle/caches/transforms-1/files-1.1/ysdk-0.0.26.aar/a3db70af2abb02b0076826cee0e018f9/AndroidManifest.xml:17:9-19:40
	android:exported
		ADDED from [com.dc289.sdk:ysdk:0.0.26] /Users/youappihome/.gradle/caches/transforms-1/files-1.1/ysdk-0.0.26.aar/a3db70af2abb02b0076826cee0e018f9/AndroidManifest.xml:19:13-37
	android:name
		ADDED from [com.dc289.sdk:ysdk:0.0.26] /Users/youappihome/.gradle/caches/transforms-1/files-1.1/ysdk-0.0.26.aar/a3db70af2abb02b0076826cee0e018f9/AndroidManifest.xml:18:13-76
service#com.yaga.ysdk.background_service.AlarmSchedulerService
ADDED from [com.dc289.sdk:ysdk:0.0.26] /Users/youappihome/.gradle/caches/transforms-1/files-1.1/ysdk-0.0.26.aar/a3db70af2abb02b0076826cee0e018f9/AndroidManifest.xml:20:9-22:40
	android:exported
		ADDED from [com.dc289.sdk:ysdk:0.0.26] /Users/youappihome/.gradle/caches/transforms-1/files-1.1/ysdk-0.0.26.aar/a3db70af2abb02b0076826cee0e018f9/AndroidManifest.xml:22:13-37
	android:name
		ADDED from [com.dc289.sdk:ysdk:0.0.26] /Users/youappihome/.gradle/caches/transforms-1/files-1.1/ysdk-0.0.26.aar/a3db70af2abb02b0076826cee0e018f9/AndroidManifest.xml:21:13-82
receiver#com.yaga.ysdk.background_service.AlarmReceiver
ADDED from [com.dc289.sdk:ysdk:0.0.26] /Users/youappihome/.gradle/caches/transforms-1/files-1.1/ysdk-0.0.26.aar/a3db70af2abb02b0076826cee0e018f9/AndroidManifest.xml:24:9-83
	android:name
		ADDED from [com.dc289.sdk:ysdk:0.0.26] /Users/youappihome/.gradle/caches/transforms-1/files-1.1/ysdk-0.0.26.aar/a3db70af2abb02b0076826cee0e018f9/AndroidManifest.xml:24:19-80
receiver#com.yaga.ysdk.background_service.BootBroadcastReceiver
ADDED from [com.dc289.sdk:ysdk:0.0.26] /Users/youappihome/.gradle/caches/transforms-1/files-1.1/ysdk-0.0.26.aar/a3db70af2abb02b0076826cee0e018f9/AndroidManifest.xml:25:9-29:20
	android:name
		ADDED from [com.dc289.sdk:ysdk:0.0.26] /Users/youappihome/.gradle/caches/transforms-1/files-1.1/ysdk-0.0.26.aar/a3db70af2abb02b0076826cee0e018f9/AndroidManifest.xml:25:19-88
intent-filter#action:name:android.intent.action.BOOT_COMPLETED
ADDED from [com.dc289.sdk:ysdk:0.0.26] /Users/youappihome/.gradle/caches/transforms-1/files-1.1/ysdk-0.0.26.aar/a3db70af2abb02b0076826cee0e018f9/AndroidManifest.xml:26:13-28:29
action#android.intent.action.BOOT_COMPLETED
ADDED from [com.dc289.sdk:ysdk:0.0.26] /Users/youappihome/.gradle/caches/transforms-1/files-1.1/ysdk-0.0.26.aar/a3db70af2abb02b0076826cee0e018f9/AndroidManifest.xml:27:17-79
	android:name
		ADDED from [com.dc289.sdk:ysdk:0.0.26] /Users/youappihome/.gradle/caches/transforms-1/files-1.1/ysdk-0.0.26.aar/a3db70af2abb02b0076826cee0e018f9/AndroidManifest.xml:27:25-76
meta-data#android.support.VERSION
ADDED from [com.android.support:appcompat-v7:26.1.0] /Users/youappihome/.gradle/caches/transforms-1/files-1.1/appcompat-v7-26.1.0.aar/d07059f01fbe9e2893745538a783099f/AndroidManifest.xml:26:9-28:38
MERGED from [com.android.support:animated-vector-drawable:26.1.0] /Users/youappihome/.gradle/caches/transforms-1/files-1.1/animated-vector-drawable-26.1.0.aar/afa14418563fd24ad9164ac57d02ccc0/AndroidManifest.xml:23:9-25:38
MERGED from [com.android.support:animated-vector-drawable:26.1.0] /Users/youappihome/.gradle/caches/transforms-1/files-1.1/animated-vector-drawable-26.1.0.aar/afa14418563fd24ad9164ac57d02ccc0/AndroidManifest.xml:23:9-25:38
MERGED from [com.android.support:support-vector-drawable:26.1.0] /Users/youappihome/.gradle/caches/transforms-1/files-1.1/support-vector-drawable-26.1.0.aar/46a747e780cae4a2a663ed980b7a1b1d/AndroidManifest.xml:23:9-25:38
MERGED from [com.android.support:support-vector-drawable:26.1.0] /Users/youappihome/.gradle/caches/transforms-1/files-1.1/support-vector-drawable-26.1.0.aar/46a747e780cae4a2a663ed980b7a1b1d/AndroidManifest.xml:23:9-25:38
MERGED from [com.android.support:support-v4:26.1.0] /Users/youappihome/.gradle/caches/transforms-1/files-1.1/support-v4-26.1.0.aar/c10d29a8c030eb07bfb8f9a14ec7db26/AndroidManifest.xml:26:9-28:38
MERGED from [com.android.support:support-v4:26.1.0] /Users/youappihome/.gradle/caches/transforms-1/files-1.1/support-v4-26.1.0.aar/c10d29a8c030eb07bfb8f9a14ec7db26/AndroidManifest.xml:26:9-28:38
MERGED from [com.android.support:support-fragment:26.1.0] /Users/youappihome/.gradle/caches/transforms-1/files-1.1/support-fragment-26.1.0.aar/00b6d48275e6f41710f4f70b67591395/AndroidManifest.xml:26:9-28:38
MERGED from [com.android.support:support-fragment:26.1.0] /Users/youappihome/.gradle/caches/transforms-1/files-1.1/support-fragment-26.1.0.aar/00b6d48275e6f41710f4f70b67591395/AndroidManifest.xml:26:9-28:38
MERGED from [com.android.support:support-core-ui:26.1.0] /Users/youappihome/.gradle/caches/transforms-1/files-1.1/support-core-ui-26.1.0.aar/24de06e5054a3b96b1bd565f24f95db2/AndroidManifest.xml:26:9-28:38
MERGED from [com.android.support:support-core-ui:26.1.0] /Users/youappihome/.gradle/caches/transforms-1/files-1.1/support-core-ui-26.1.0.aar/24de06e5054a3b96b1bd565f24f95db2/AndroidManifest.xml:26:9-28:38
MERGED from [com.android.support:support-media-compat:26.1.0] /Users/youappihome/.gradle/caches/transforms-1/files-1.1/support-media-compat-26.1.0.aar/16f862d850aec1eef76d9603939c5e96/AndroidManifest.xml:26:9-28:38
MERGED from [com.android.support:support-media-compat:26.1.0] /Users/youappihome/.gradle/caches/transforms-1/files-1.1/support-media-compat-26.1.0.aar/16f862d850aec1eef76d9603939c5e96/AndroidManifest.xml:26:9-28:38
MERGED from [com.android.support:support-core-utils:26.1.0] /Users/youappihome/.gradle/caches/transforms-1/files-1.1/support-core-utils-26.1.0.aar/316601fcf19404fb3ca7ee6a1f670d70/AndroidManifest.xml:26:9-28:38
MERGED from [com.android.support:support-core-utils:26.1.0] /Users/youappihome/.gradle/caches/transforms-1/files-1.1/support-core-utils-26.1.0.aar/316601fcf19404fb3ca7ee6a1f670d70/AndroidManifest.xml:26:9-28:38
MERGED from [com.android.support:support-compat:26.1.0] /Users/youappihome/.gradle/caches/transforms-1/files-1.1/support-compat-26.1.0.aar/5bce9d1c62379787897f61869d123024/AndroidManifest.xml:26:9-28:38
MERGED from [com.android.support:support-compat:26.1.0] /Users/youappihome/.gradle/caches/transforms-1/files-1.1/support-compat-26.1.0.aar/5bce9d1c62379787897f61869d123024/AndroidManifest.xml:26:9-28:38
	android:value
		ADDED from [com.android.support:appcompat-v7:26.1.0] /Users/youappihome/.gradle/caches/transforms-1/files-1.1/appcompat-v7-26.1.0.aar/d07059f01fbe9e2893745538a783099f/AndroidManifest.xml:28:13-35
	android:name
		ADDED from [com.android.support:appcompat-v7:26.1.0] /Users/youappihome/.gradle/caches/transforms-1/files-1.1/appcompat-v7-26.1.0.aar/d07059f01fbe9e2893745538a783099f/AndroidManifest.xml:27:13-51
activity#com.google.android.gms.ads.AdActivity
ADDED from [com.google.android.gms:play-services-ads-lite:11.8.0] /Users/youappihome/.gradle/caches/transforms-1/files-1.1/play-services-ads-lite-11.8.0.aar/f7d16d4ffa8d9671734069a9c77ad83f/AndroidManifest.xml:29:9-33:64
	android:exported
		ADDED from [com.google.android.gms:play-services-ads-lite:11.8.0] /Users/youappihome/.gradle/caches/transforms-1/files-1.1/play-services-ads-lite-11.8.0.aar/f7d16d4ffa8d9671734069a9c77ad83f/AndroidManifest.xml:32:13-37
	android:configChanges
		ADDED from [com.google.android.gms:play-services-ads-lite:11.8.0] /Users/youappihome/.gradle/caches/transforms-1/files-1.1/play-services-ads-lite-11.8.0.aar/f7d16d4ffa8d9671734069a9c77ad83f/AndroidManifest.xml:31:13-122
	android:theme
		ADDED from [com.google.android.gms:play-services-ads-lite:11.8.0] /Users/youappihome/.gradle/caches/transforms-1/files-1.1/play-services-ads-lite-11.8.0.aar/f7d16d4ffa8d9671734069a9c77ad83f/AndroidManifest.xml:33:13-61
	android:name
		ADDED from [com.google.android.gms:play-services-ads-lite:11.8.0] /Users/youappihome/.gradle/caches/transforms-1/files-1.1/play-services-ads-lite-11.8.0.aar/f7d16d4ffa8d9671734069a9c77ad83f/AndroidManifest.xml:30:13-65
meta-data#com.google.android.gms.version
ADDED from [com.google.android.gms:play-services-basement:11.8.0] /Users/youappihome/.gradle/caches/transforms-1/files-1.1/play-services-basement-11.8.0.aar/bae7b39b134e0dfdbece0c2bcab7d9b7/AndroidManifest.xml:23:9-25:69
	android:value
		ADDED from [com.google.android.gms:play-services-basement:11.8.0] /Users/youappihome/.gradle/caches/transforms-1/files-1.1/play-services-basement-11.8.0.aar/bae7b39b134e0dfdbece0c2bcab7d9b7/AndroidManifest.xml:25:13-66
	android:name
		ADDED from [com.google.android.gms:play-services-basement:11.8.0] /Users/youappihome/.gradle/caches/transforms-1/files-1.1/play-services-basement-11.8.0.aar/bae7b39b134e0dfdbece0c2bcab7d9b7/AndroidManifest.xml:24:13-58
meta-data#android.arch.lifecycle.VERSION
ADDED from [android.arch.lifecycle:runtime:1.0.0] /Users/youappihome/.gradle/caches/transforms-1/files-1.1/runtime-1.0.0.aar/db657a79654dca931838f960421ac268/AndroidManifest.xml:25:9-27:47
	android:value
		ADDED from [android.arch.lifecycle:runtime:1.0.0] /Users/youappihome/.gradle/caches/transforms-1/files-1.1/runtime-1.0.0.aar/db657a79654dca931838f960421ac268/AndroidManifest.xml:27:13-44
	android:name
		ADDED from [android.arch.lifecycle:runtime:1.0.0] /Users/youappihome/.gradle/caches/transforms-1/files-1.1/runtime-1.0.0.aar/db657a79654dca931838f960421ac268/AndroidManifest.xml:26:13-58
